{
    "wastes": [
        {
            "id": 1,
            "name": "Puszka",
            "category": 2,
            "imageUrl": "can"
        },
        {
            "id": 2,
            "name": "Banan",
            "category": 6,
            "imageUrl": "banana"
        },
        {
            "id": 3,
            "name": "Kość",
            "category": 6,
            "imageUrl": "bone"
        },
        {
            "id": 4,
            "name": "Butelka",
            "category": 5,
            "imageUrl": "bottle"
        },
        {
            "id": 5,
            "name": "Gazeta",
            "category": 1,
            "imageUrl": "newspaper"
        }
    ]
}
